ExeStack:
(v=10, (new(v,20), (new(a,22), (wH(a,30), (print(a), print(rH(a)))))))
Sym Table:
Print output:
File Table:
Heap:

ExeStack:
(new(v,20), (new(a,22), (wH(a,30), (print(a), print(rH(a))))))
v=10
Sym Table:
Print output:
File Table:
Heap:

ExeStack:
(new(v,20), (new(a,22), (wH(a,30), (print(a), print(rH(a))))))
Sym Table:
Key: v, Value: 10
Print output:
File Table:
Heap:

ExeStack:
(new(a,22), (wH(a,30), (print(a), print(rH(a)))))
new(v,20)
Sym Table:
Key: v, Value: 10
Print output:
File Table:
Heap:

ExeStack:
(new(a,22), (wH(a,30), (print(a), print(rH(a)))))
Sym Table:
Key: v, Value: 1
Print output:
File Table:
Heap:
Key:1 Value:20

ExeStack:
(wH(a,30), (print(a), print(rH(a))))
new(a,22)
Sym Table:
Key: v, Value: 1
Print output:
File Table:
Heap:
Key:1 Value:20

ExeStack:
(wH(a,30), (print(a), print(rH(a))))
Sym Table:
Key: a, Value: 2
Key: v, Value: 1
Print output:
File Table:
Heap:
Key:1 Value:20
Key:2 Value:22

ExeStack:
(print(a), print(rH(a)))
wH(a,30)
Sym Table:
Key: a, Value: 2
Key: v, Value: 1
Print output:
File Table:
Heap:
Key:1 Value:20
Key:2 Value:22

ExeStack:
(print(a), print(rH(a)))
Sym Table:
Key: a, Value: 2
Key: v, Value: 1
Print output:
File Table:
Heap:
Key:1 Value:20
Key:2 Value:30

ExeStack:
print(rH(a))
print(a)
Sym Table:
Key: a, Value: 2
Key: v, Value: 1
Print output:
File Table:
Heap:
Key:1 Value:20
Key:2 Value:30

ExeStack:
print(rH(a))
Sym Table:
Key: a, Value: 2
Key: v, Value: 1
Print output:
2
File Table:
Heap:
Key:1 Value:20
Key:2 Value:30

ExeStack:
Sym Table:
Key: a, Value: 2
Key: v, Value: 1
Print output:
2
30
File Table:
Heap:
Key:1 Value:20
Key:2 Value:30

ExeStack:
(v=10, (new(v,20), (new(a,22), (wH(a,30), (print(a), print(rH(a)))))))
Sym Table:
Print output:
File Table:
Heap:

ExeStack:
(new(v,20), (new(a,22), (wH(a,30), (print(a), print(rH(a))))))
v=10
Sym Table:
Print output:
File Table:
Heap:

ExeStack:
(new(v,20), (new(a,22), (wH(a,30), (print(a), print(rH(a))))))
Sym Table:
Key: v, Value: 10
Print output:
File Table:
Heap:

ExeStack:
(new(a,22), (wH(a,30), (print(a), print(rH(a)))))
new(v,20)
Sym Table:
Key: v, Value: 10
Print output:
File Table:
Heap:

ExeStack:
(new(a,22), (wH(a,30), (print(a), print(rH(a)))))
Sym Table:
Key: v, Value: 1
Print output:
File Table:
Heap:
Key:1 Value:20

ExeStack:
(wH(a,30), (print(a), print(rH(a))))
new(a,22)
Sym Table:
Key: v, Value: 1
Print output:
File Table:
Heap:
Key:1 Value:20

ExeStack:
(wH(a,30), (print(a), print(rH(a))))
Sym Table:
Key: a, Value: 2
Key: v, Value: 1
Print output:
File Table:
Heap:
Key:1 Value:20
Key:2 Value:22

ExeStack:
(print(a), print(rH(a)))
wH(a,30)
Sym Table:
Key: a, Value: 2
Key: v, Value: 1
Print output:
File Table:
Heap:
Key:1 Value:20
Key:2 Value:22

ExeStack:
(print(a), print(rH(a)))
Sym Table:
Key: a, Value: 2
Key: v, Value: 1
Print output:
File Table:
Heap:
Key:1 Value:20
Key:2 Value:30

ExeStack:
print(rH(a))
print(a)
Sym Table:
Key: a, Value: 2
Key: v, Value: 1
Print output:
File Table:
Heap:
Key:1 Value:20
Key:2 Value:30

ExeStack:
print(rH(a))
Sym Table:
Key: a, Value: 2
Key: v, Value: 1
Print output:
2
File Table:
Heap:
Key:1 Value:20
Key:2 Value:30

ExeStack:
Sym Table:
Key: a, Value: 2
Key: v, Value: 1
Print output:
2
30
File Table:
Heap:
Key:1 Value:20
Key:2 Value:30

ExeStack:
(v=10, (new(v,20), (new(a,22), (wH(a,30), (print(a), print(rH(a)))))))
Sym Table:
Print output:
File Table:
Heap:

ExeStack:
(new(v,20), (new(a,22), (wH(a,30), (print(a), print(rH(a))))))
v=10
Sym Table:
Print output:
File Table:
Heap:

ExeStack:
(new(v,20), (new(a,22), (wH(a,30), (print(a), print(rH(a))))))
Sym Table:
Key: v, Value: 10
Print output:
File Table:
Heap:

ExeStack:
(new(a,22), (wH(a,30), (print(a), print(rH(a)))))
new(v,20)
Sym Table:
Key: v, Value: 10
Print output:
File Table:
Heap:

ExeStack:
(new(a,22), (wH(a,30), (print(a), print(rH(a)))))
Sym Table:
Key: v, Value: 1
Print output:
File Table:
Heap:
Key:1 Value:20

ExeStack:
(wH(a,30), (print(a), print(rH(a))))
new(a,22)
Sym Table:
Key: v, Value: 1
Print output:
File Table:
Heap:
Key:1 Value:20

ExeStack:
(wH(a,30), (print(a), print(rH(a))))
Sym Table:
Key: a, Value: 2
Key: v, Value: 1
Print output:
File Table:
Heap:
Key:1 Value:20
Key:2 Value:22

ExeStack:
(print(a), print(rH(a)))
wH(a,30)
Sym Table:
Key: a, Value: 2
Key: v, Value: 1
Print output:
File Table:
Heap:
Key:1 Value:20
Key:2 Value:22

ExeStack:
(print(a), print(rH(a)))
Sym Table:
Key: a, Value: 2
Key: v, Value: 1
Print output:
File Table:
Heap:
Key:1 Value:20
Key:2 Value:30

ExeStack:
print(rH(a))
print(a)
Sym Table:
Key: a, Value: 2
Key: v, Value: 1
Print output:
File Table:
Heap:
Key:1 Value:20
Key:2 Value:30

ExeStack:
print(rH(a))
Sym Table:
Key: a, Value: 2
Key: v, Value: 1
Print output:
2
File Table:
Heap:
Key:1 Value:20
Key:2 Value:30

ExeStack:
Sym Table:
Key: a, Value: 2
Key: v, Value: 1
Print output:
2
30
File Table:
Heap:
Key:1 Value:20
Key:2 Value:30

ExeStack:
(v=10, (new(v,20), (new(a,22), (wH(a,30), (print(a), print(rH(a)))))))
Sym Table:
Print output:
File Table:
Heap:

ExeStack:
(new(v,20), (new(a,22), (wH(a,30), (print(a), print(rH(a))))))
v=10
Sym Table:
Print output:
File Table:
Heap:

ExeStack:
(new(v,20), (new(a,22), (wH(a,30), (print(a), print(rH(a))))))
Sym Table:
Key: v, Value: 10
Print output:
File Table:
Heap:

ExeStack:
(new(a,22), (wH(a,30), (print(a), print(rH(a)))))
new(v,20)
Sym Table:
Key: v, Value: 10
Print output:
File Table:
Heap:

ExeStack:
(new(a,22), (wH(a,30), (print(a), print(rH(a)))))
Sym Table:
Key: v, Value: 1
Print output:
File Table:
Heap:
Key:1 Value:20

ExeStack:
(wH(a,30), (print(a), print(rH(a))))
new(a,22)
Sym Table:
Key: v, Value: 1
Print output:
File Table:
Heap:
Key:1 Value:20

ExeStack:
(wH(a,30), (print(a), print(rH(a))))
Sym Table:
Key: a, Value: 2
Key: v, Value: 1
Print output:
File Table:
Heap:
Key:1 Value:20
Key:2 Value:22

ExeStack:
(print(a), print(rH(a)))
wH(a,30)
Sym Table:
Key: a, Value: 2
Key: v, Value: 1
Print output:
File Table:
Heap:
Key:1 Value:20
Key:2 Value:22

ExeStack:
(print(a), print(rH(a)))
Sym Table:
Key: a, Value: 2
Key: v, Value: 1
Print output:
File Table:
Heap:
Key:1 Value:20
Key:2 Value:30

ExeStack:
print(rH(a))
print(a)
Sym Table:
Key: a, Value: 2
Key: v, Value: 1
Print output:
File Table:
Heap:
Key:1 Value:20
Key:2 Value:30

ExeStack:
print(rH(a))
Sym Table:
Key: a, Value: 2
Key: v, Value: 1
Print output:
2
File Table:
Heap:
Key:1 Value:20
Key:2 Value:30

ExeStack:
Sym Table:
Key: a, Value: 2
Key: v, Value: 1
Print output:
2
30
File Table:
Heap:
Key:1 Value:20
Key:2 Value:30

